strategic_region={
	id=123
	name="STRATEGICREGION_123"
	provinces={
		217 451 535 571 626 741 821 900 1034 1114 1161 1378 1406 1659 1753 1840 2106 2159 2192 2260 2278 2322 2364 2419 2450 2474 2799 2820 2824 2835 3053 3086 3158 3168 3171 3187 3216 3231 3312 3339 3374 3463 3561 3618 3643 3699 3702 3738 3745 3845 3856 3870 3891 4061 4125 4979 4986 5002 5008 5019 5031 5037 5063 5073 5074 5101 5109 5133 5152 5156 5192 5198 5203 5206 5214 5221 5239 5244 5252 5270 5273 5277 5279 5285 5289 5304 5309 5315 5322 5341 5345 5346 5375 5384 5391 5403 5411 5416 5438 5448 5479 5495 5496 5516 5538 5579 
	}
	weather={
	}
}
