
strategic_region={
	id=68
	name="STRATEGICREGION_68"
	provinces={
		205 254 501 532 684 768 919 1009 1218 1354 1355 1448 1493 1641 1707 1714 1785 2002 2136 2430 2523 2541 2694 3095 3529 3810 3965 4140 4202 4205 4212 4219 4223 4227 4230 4241 4250 4251 4266 4267 4275 7763 7765 7767 8022 8549 8643 8750 9329 9424 9535 9601 9871 10324 10441 10503 10536 10618 10786 11097 
	}
	weather={
	}
}
