
state={
	id=163
	name="STATE_163"

	history={
		owner = NWA
		buildings = {
			infrastructure = 4
			industrial_complex = 1
			arms_factory = 1
			air_base = 1
			anti_air_building = 0

		}
		add_core_of = NWA

	}

	provinces={
		94 3669 3828 4745 4779 4780 4811 4816 
	}
	manpower=5000000
	buildings_max_level_factor=1.000
	state_category=large_town
}
