state={
	id=255
	name="STATE_255"
	state_category = town
	history={
		owner = TKZ
		#victory_points = { PROV 5 }
		buildings = {
			infrastructure = 2
			#dockyard = 0
			industrial_complex = 1
			arms_factory = 1
			air_base = 1
			anti_air_building = 0
		}
		add_core_of = TKZ
	}
	provinces={
		782 1305 2351 2675 3407 3491 3905 4040 4067 4653 4680 4686 4711 
	}
	manpower=1500
	buildings_max_level_factor=1.000
}
