state={
	id=30
	name="STATE_30"
	state_category = large_town
	resources={
		tungsten=15
	}
	history={
		owner = USA
		#victory_points = { PROV 5 }
		buildings = {
			infrastructure = 5
			#dockyard = 0
			industrial_complex = 1
			arms_factory = 1
			air_base = 1
			anti_air_building = 0
		}
		add_core_of = USA
	}
	provinces={
		550 3625 5413 5482 5505 5558 
	}
	manpower=2
	buildings_max_level_factor=1.000
}
