
state={
	id=430
	name="STATE_430"

	history={
		owner = KOE
		buildings = {
			infrastructure = 5
			industrial_complex = 1
			arms_factory = 1
			air_base = 0
			anti_air_building = 0

		}
		add_core_of = KOE
		add_core_of = NCU

	}

	provinces={
		1036 1419 1446 1808 3415 6366 6372 6386 6399 6417 
	}
	manpower=5000000
	buildings_max_level_factor=1.000
	state_category=town
}
