
state={
	id=431
	name="STATE_431"

	history={
		owner = KOE
		buildings = {
			infrastructure = 4
			industrial_complex = 1
			arms_factory = 1
			air_base = 0
			anti_air_building = 0

		}
		add_core_of = KOE
		add_core_of = NCU

	}

	provinces={
		2262 2344 2551 4056 6286 6287 6309 6320 6346 6349 
	}
	manpower=2
	buildings_max_level_factor=1.000
	state_category=town
}
