state={
	id=437
	name="STATE_437"
	state_category = town
	history={
		owner = NCU
		#victory_points = { PROV 5 }
		buildings = {
			infrastructure = 3
			#dockyard = 0
			industrial_complex = 1
			arms_factory = 1
			air_base = 0
			anti_air_building = 0
		}
		add_core_of = NCU
		add_core_of = KOE
	}
	provinces={
		473 731 904 2196 2221 5926 5958 5959 5986 6013 6031 6065 6075 6120 
	}
	manpower=2
	buildings_max_level_factor=1.000
}
